
State Machine - |finalproject|time6
Name time6.00000101 time6.00000100 time6.00000011 time6.00000010 time6.00000001 time6.00000000 
time6.00000000 0 0 0 0 0 0 
time6.00000001 0 0 0 0 1 1 
time6.00000010 0 0 0 1 0 1 
time6.00000011 0 0 1 0 0 1 
time6.00000100 0 1 0 0 0 1 
time6.00000101 1 0 0 0 0 1 

State Machine - |finalproject|fnd_state
Name fnd_state.101 fnd_state.100 fnd_state.011 fnd_state.010 fnd_state.000 fnd_state.001 
fnd_state.001 0 0 0 0 0 0 
fnd_state.000 0 0 0 0 1 1 
fnd_state.010 0 0 0 1 0 1 
fnd_state.011 0 0 1 0 0 1 
fnd_state.100 0 1 0 0 0 1 
fnd_state.101 1 0 0 0 0 1 

State Machine - |finalproject|KEYGET:keyget|state
Name state.no_scan state.column3 state.column2 state.column1 
state.no_scan 0 0 0 0 
state.column1 1 0 0 1 
state.column2 1 0 1 0 
state.column3 1 1 0 0 
